{"name":"Test_quotable_api_with_tags_quotes_queryparams","id":"quotableapi---automation;test-quotable-api-with-tags-quotes-queryparams","testSteps":[{"number":1,"description":"1: Test_quotable_api_with_tags_quotes_queryparams ({path\u003dquotes, tagValue\u003dfamous-quotes,wisdom, authorValue\u003dConfucius, totalCount\u003d40})","duration":1547,"startTime":"2021-07-03T13:31:53.778+05:30[Asia/Calcutta]","result":"SUCCESS","precondition":false,"level":0,"lineNumber":49,"children":[{"number":2,"description":"Given the api is composed of \"https://api.quotable.io/\"","duration":16,"startTime":"2021-07-03T13:31:53.778+05:30[Asia/Calcutta]","result":"SUCCESS","reportData":[{"title":"BaseURI","contents":"https://api.quotable.io/","isEvidence":false,"id":"report-data-76c7170d-c664-4f1a-bfd9-ce773e526caf"}],"precondition":false,"level":1},{"number":3,"description":"Given A call to quotable api with path as \"quotes\"","duration":0,"startTime":"2021-07-03T13:31:53.794+05:30[Asia/Calcutta]","result":"SUCCESS","precondition":false,"level":1},{"number":4,"description":"Then validate the api with following multiple queryparams\r\n| property | value |\r\n| tags | famous-quotes,wisdom |\r\n| author | Confucius |","duration":1484,"startTime":"2021-07-03T13:31:53.794+05:30[Asia/Calcutta]","result":"SUCCESS","reportData":[{"title":"Tags","contents":"[[wisdom], [famous-quotes], [famous-quotes], [famous-quotes], [famous-quotes], [famous-quotes], [famous-quotes], [famous-quotes], [famous-quotes], [famous-quotes], [famous-quotes], [famous-quotes], [famous-quotes], [famous-quotes, wisdom], [wisdom], [famous-quotes], [famous-quotes], [famous-quotes], [famous-quotes], [famous-quotes]]","isEvidence":false,"id":"report-data-fd78f447-46d4-4d40-96c3-819391647edb"}],"precondition":false,"level":1},{"number":5,"description":"When response code is \"200\"","duration":16,"startTime":"2021-07-03T13:31:55.278+05:30[Asia/Calcutta]","result":"SUCCESS","reportData":[{"title":"Response Body with status code : 200","contents":"{\n    \"count\": 20,\n    \"totalCount\": 40,\n    \"page\": 1,\n    \"totalPages\": 2,\n    \"lastItemIndex\": 20,\n    \"results\": [\n        {\n            \"tags\": [\n                \"wisdom\"\n            ],\n            \"_id\": \"6Kl3UT6ULk\",\n            \"content\": \"Wisdom, compassion, and courage are the three universally recognized moral qualities of men.\",\n            \"author\": \"Confucius\",\n            \"authorSlug\": \"confucius\",\n            \"length\": 92,\n            \"dateAdded\": \"2021-05-12\",\n            \"dateModified\": \"2021-05-12\"\n        },\n        {\n            \"tags\": [\n                \"famous-quotes\"\n            ],\n            \"_id\": \"Oh-e1-oygRPX\",\n            \"content\": \"To be wronged is nothing unless you continue to remember it.\",\n            \"author\": \"Confucius\",\n            \"authorSlug\": \"confucius\",\n            \"length\": 60,\n            \"dateAdded\": \"2021-05-12\",\n            \"dateModified\": \"2021-05-12\"\n        },\n        {\n            \"tags\": [\n                \"famous-quotes\"\n            ],\n            \"_id\": \"LPtv5gxsvhsr\",\n            \"content\": \"If you look into your own heart, and you find nothing wrong there, what is there to worry about? What is there to fear?\",\n            \"author\": \"Confucius\",\n            \"authorSlug\": \"confucius\",\n            \"length\": 119,\n            \"dateAdded\": \"2021-05-05\",\n            \"dateModified\": \"2021-05-05\"\n        },\n        {\n            \"tags\": [\n                \"famous-quotes\"\n            ],\n            \"_id\": \"P77hDIkrjYP\",\n            \"content\": \"Study the past, if you would divine the future.\",\n            \"author\": \"Confucius\",\n            \"authorSlug\": \"confucius\",\n            \"length\": 47,\n            \"dateAdded\": \"2021-04-23\",\n            \"dateModified\": \"2021-04-23\"\n        },\n        {\n            \"tags\": [\n                \"famous-quotes\"\n            ],\n            \"_id\": \"IxrwsheO2w6\",\n            \"content\": \"Wherever you go, go with all your heart.\",\n            \"author\": \"Confucius\",\n            \"authorSlug\": \"confucius\",\n            \"length\": 40,\n            \"dateAdded\": \"2021-04-23\",\n            \"dateModified\": \"2021-04-23\"\n        },\n        {\n            \"tags\": [\n                \"famous-quotes\"\n            ],\n            \"_id\": \"u80cGRXHeCeH\",\n            \"content\": \"When you see a good person, think of becoming like him. When you see someone not so good, reflect on your own weak points.\",\n            \"author\": \"Confucius\",\n            \"authorSlug\": \"confucius\",\n            \"length\": 122,\n            \"dateAdded\": \"2021-04-08\",\n            \"dateModified\": \"2021-04-08\"\n        },\n        {\n            \"tags\": [\n                \"famous-quotes\"\n            ],\n            \"_id\": \"ALcsEfDR7FL\",\n            \"content\": \"The cautious seldom err.\",\n            \"author\": \"Confucius\",\n            \"authorSlug\": \"confucius\",\n            \"length\": 24,\n            \"dateAdded\": \"2021-03-28\",\n            \"dateModified\": \"2021-03-28\"\n        },\n        {\n            \"tags\": [\n                \"famous-quotes\"\n            ],\n            \"_id\": \"AOZZPqNwJWMZ\",\n            \"content\": \"He who wishes to secure the good of others, has already secured his own.\",\n            \"author\": \"Confucius\",\n            \"authorSlug\": \"confucius\",\n            \"length\": 72,\n            \"dateAdded\": \"2021-03-26\",\n            \"dateModified\": \"2021-03-26\"\n        },\n        {\n            \"tags\": [\n                \"famous-quotes\"\n            ],\n            \"_id\": \"Yk5zlxPAS_M7\",\n            \"content\": \"I hear and I forget. I see and I remember. I do and I understand.\",\n            \"author\": \"Confucius\",\n            \"authorSlug\": \"confucius\",\n            \"length\": 65,\n            \"dateAdded\": \"2021-03-26\",\n            \"dateModified\": \"2021-03-26\"\n        },\n        {\n            \"tags\": [\n                \"famous-quotes\"\n            ],\n            \"_id\": \"TdIyDe0XX542\",\n            \"content\": \"Learning without reflection is a waste, reflection without learning is dangerous.\",\n            \"author\": \"Confucius\",\n            \"authorSlug\": \"confucius\",\n            \"length\": 81,\n            \"dateAdded\": \"2020-12-08\",\n            \"dateModified\": \"2020-12-08\"\n        },\n        {\n            \"tags\": [\n                \"famous-quotes\"\n            ],\n            \"_id\": \"ahrACwvb84Z4\",\n            \"content\": \"I want you to be everything that\u0027s you, deep at the center of your being.\",\n            \"author\": \"Confucius\",\n            \"authorSlug\": \"confucius\",\n            \"length\": 73,\n            \"dateAdded\": \"2020-10-29\",\n            \"dateModified\": \"2020-10-29\"\n        },\n        {\n            \"tags\": [\n                \"famous-quotes\"\n            ],\n            \"_id\": \"hfevjsHROQiB\",\n            \"content\": \"Being in humaneness is good. If we select other goodness and thus are far apart from humaneness, how can we be the wise?\",\n            \"author\": \"Confucius\",\n            \"authorSlug\": \"confucius\",\n            \"length\": 120,\n            \"dateAdded\": \"2020-10-14\",\n            \"dateModified\": \"2020-10-14\"\n        },\n        {\n            \"tags\": [\n                \"famous-quotes\"\n            ],\n            \"_id\": \"C71_HiGpvT2j\",\n            \"content\": \"The superior man is satisfied and composed; the mean man is always full of distress.\",\n            \"author\": \"Confucius\",\n            \"authorSlug\": \"confucius\",\n            \"length\": 84,\n            \"dateAdded\": \"2020-06-24\",\n            \"dateModified\": \"2020-06-24\"\n        },\n        {\n            \"tags\": [\n                \"famous-quotes\",\n                \"wisdom\"\n            ],\n            \"_id\": \"3sJ6JeUcIf6C\",\n            \"content\": \"When it is obvious that the goals cannot be reached, don\u0027t adjust the goals, adjust the action steps.\",\n            \"author\": \"Confucius\",\n            \"authorSlug\": \"confucius\",\n            \"length\": 101,\n            \"dateAdded\": \"2020-06-24\",\n            \"dateModified\": \"2020-06-24\"\n        },\n        {\n            \"tags\": [\n                \"wisdom\"\n            ],\n            \"_id\": \"RcVCmaE4Ti\",\n            \"content\": \"By three methods we may learn wisdom: First, by reflection, which is noblest; Second, by imitation, which is easiest; and third by experience, which is the bitterest.\",\n            \"author\": \"Confucius\",\n            \"authorSlug\": \"confucius\",\n            \"length\": 166,\n            \"dateAdded\": \"2020-04-14\",\n            \"dateModified\": \"2020-04-14\"\n        },\n        {\n            \"tags\": [\n                \"famous-quotes\"\n            ],\n            \"_id\": \"RKOxn5gYEO33\",\n            \"content\": \"To study and not think is a waste. To think and not study is dangerous.\",\n            \"author\": \"Confucius\",\n            \"authorSlug\": \"confucius\",\n            \"length\": 71,\n            \"dateAdded\": \"2020-03-27\",\n            \"dateModified\": \"2020-03-27\"\n        },\n        {\n            \"tags\": [\n                \"famous-quotes\"\n            ],\n            \"_id\": \"NsDoqkwD8ysy\",\n            \"content\": \"Reviewing what you have learned and learning anew, you are fit to be a teacher.\",\n            \"author\": \"Confucius\",\n            \"authorSlug\": \"confucius\",\n            \"length\": 79,\n            \"dateAdded\": \"2020-03-15\",\n            \"dateModified\": \"2020-03-15\"\n        },\n        {\n            \"tags\": [\n                \"famous-quotes\"\n            ],\n            \"_id\": \"COOYD278-JAr\",\n            \"content\": \"The superior man is modest in his speech but exceeds in his actions.\",\n            \"author\": \"Confucius\",\n            \"authorSlug\": \"confucius\",\n            \"length\": 68,\n            \"dateAdded\": \"2020-03-11\",\n            \"dateModified\": \"2021-06-17\"\n        },\n        {\n            \"tags\": [\n                \"famous-quotes\"\n            ],\n            \"_id\": \"OSaopvW0IUd\",\n            \"content\": \"The more you know yourself, the more you forgive yourself.\",\n            \"author\": \"Confucius\",\n            \"authorSlug\": \"confucius\",\n            \"length\": 58,\n            \"dateAdded\": \"2020-03-11\",\n            \"dateModified\": \"2020-03-11\"\n        },\n        {\n            \"tags\": [\n                \"famous-quotes\"\n            ],\n            \"_id\": \"GbjRau4Ef2cZ\",\n            \"content\": \"When you meet someone better than yourself, turn your thoughts to becoming his equal. When you meet someone not as good as you are, look within and examine your own self.\",\n            \"author\": \"Confucius\",\n            \"authorSlug\": \"confucius\",\n            \"length\": 170,\n            \"dateAdded\": \"2020-03-11\",\n            \"dateModified\": \"2020-03-11\"\n        }\n    ]\n}","isEvidence":false,"id":"report-data-5920e0a1-dfc4-4136-9aff-78eb24de0be3"}],"precondition":false,"level":1},{"number":6,"description":"Then validate the total count \"40\"","duration":31,"startTime":"2021-07-03T13:31:55.294+05:30[Asia/Calcutta]","result":"SUCCESS","precondition":false,"level":1}]}],"userStory":{"id":"quotableapi---automation","storyName":"QuotableAPI - Automation","path":"quotable_api.feature","narrative":"  I want to automate the QuotableAPI and validate the various functionalities","type":"feature"},"featureTag":{"name":"QuotableAPI - Automation","type":"feature","displayName":"QuotableAPI - Automation"},"title":"Test quotable api with tags quotes queryparams","description":"","backgroundTitle":"","backgroundDescription":"","tags":[{"name":"QuotableAPI - Automation","type":"feature","displayName":"QuotableAPI - Automation"},{"name":"quotableAPI","type":"tag","displayName":"quotableAPI"},{"name":"quotableAPIWithTagsAndQuotesParam","type":"tag","displayName":"quotableAPIWithTagsAndQuotesParam"}],"startTime":"2021-07-03T13:31:53.778+05:30[Asia/Calcutta]","duration":1547,"projectKey":"","isManualTestingUpToDate":false,"dataTable":{"headers":["path","tagValue","authorValue","totalCount"],"rows":[{"values":["quotes","famous-quotes,wisdom","Confucius","40"],"lineNumber":49,"result":"SUCCESS"}],"predefinedRows":true,"scenarioOutline":"Given A call to quotable api with path as \"\u003cpath\u003e\"\n\rThen validate the api with following multiple queryparams\n\rWhen response code is \"200\"\n\rThen validate the total count \"\u003ctotalCount\u003e\"\n\r","dataSetDescriptors":[{"startRow":0,"rowCount":0,"name":"","description":""}]},"manual":false,"testSource":"Cucumber","result":"SUCCESS","scenarioOutline":"Given A call to quotable api with path as \"\u003cpath\u003e\"\r\nThen validate the api with following multiple queryparams\r\n|property | value|\r\n|tags | \u003ctagValue\u003e|\r\n|author | \u003cauthorValue\u003e|\r\nWhen response code is \"200\"\r\nThen validate the total count \"\u003ctotalCount\u003e\""}