{"name":"Test_quotable_api_with_tags_pages_queryparams","id":"quotableapi---automation;test-quotable-api-with-tags-pages-queryparams","testSteps":[{"number":1,"description":"1: Test_quotable_api_with_tags_pages_queryparams ({path\u003dquotes, tagValue\u003dfriendship, pageValue\u003d2, totalCount\u003d187})","duration":1515,"startTime":"2021-07-03T13:31:55.341+05:30[Asia/Calcutta]","result":"SUCCESS","precondition":false,"level":0,"lineNumber":63,"children":[{"number":2,"description":"Given the api is composed of \"https://api.quotable.io/\"","duration":15,"startTime":"2021-07-03T13:31:55.341+05:30[Asia/Calcutta]","result":"SUCCESS","reportData":[{"title":"BaseURI","contents":"https://api.quotable.io/","isEvidence":false,"id":"report-data-b23f6bf3-22ed-4db3-84bc-e6ba3f5776fc"}],"precondition":false,"level":1},{"number":3,"description":"Given A call to quotable api with path as \"quotes\"","duration":0,"startTime":"2021-07-03T13:31:55.356+05:30[Asia/Calcutta]","result":"SUCCESS","precondition":false,"level":1},{"number":4,"description":"Then validate the api with following multiple queryparams\r\n| property | value |\r\n| tags | friendship |\r\n| page | 2 |","duration":1469,"startTime":"2021-07-03T13:31:55.356+05:30[Asia/Calcutta]","result":"SUCCESS","reportData":[{"title":"Tags","contents":"[[friendship], [friendship], [famous-quotes, friendship], [friendship], [friendship], [friendship], [famous-quotes, friendship], [friendship], [friendship], [friendship], [famous-quotes, friendship, self-help], [friendship], [friendship], [friendship], [friendship], [friendship], [friendship], [friendship], [friendship], [friendship]]","isEvidence":false,"id":"report-data-91210035-f781-4a42-bf1e-c6b8724178e1"}],"precondition":false,"level":1},{"number":5,"description":"When response code is \"200\"","duration":0,"startTime":"2021-07-03T13:31:56.825+05:30[Asia/Calcutta]","result":"SUCCESS","reportData":[{"title":"Response Body with status code : 200","contents":"{\n    \"count\": 20,\n    \"totalCount\": 187,\n    \"page\": 2,\n    \"totalPages\": 10,\n    \"lastItemIndex\": 40,\n    \"results\": [\n        {\n            \"tags\": [\n                \"friendship\"\n            ],\n            \"_id\": \"KsFj1hU_I3\",\n            \"content\": \"True friendship is a plant of slow growth, and must undergo and withstand the shocks of adversity, before it is entitled to the appellation.\",\n            \"author\": \"George Washington\",\n            \"authorSlug\": \"george-washington\",\n            \"length\": 140,\n            \"dateAdded\": \"2021-03-28\",\n            \"dateModified\": \"2021-03-28\"\n        },\n        {\n            \"tags\": [\n                \"friendship\"\n            ],\n            \"_id\": \"-0DZUCVFcb\",\n            \"content\": \"Friendship is Love without his wings!\",\n            \"author\": \"Lord Byron\",\n            \"authorSlug\": \"lord-byron\",\n            \"length\": 37,\n            \"dateAdded\": \"2021-03-26\",\n            \"dateModified\": \"2021-03-26\"\n        },\n        {\n            \"tags\": [\n                \"famous-quotes\",\n                \"friendship\"\n            ],\n            \"_id\": \"zJCNH3Q5shhD\",\n            \"content\": \"Friends show their love in times of trouble, not in happiness.\",\n            \"author\": \"Euripides\",\n            \"authorSlug\": \"euripides\",\n            \"length\": 62,\n            \"dateAdded\": \"2021-03-26\",\n            \"dateModified\": \"2021-03-26\"\n        },\n        {\n            \"tags\": [\n                \"friendship\"\n            ],\n            \"_id\": \"Dk5eYrHsEs\",\n            \"content\": \"Friends are the siblings God never gave us.\",\n            \"author\": \"Mencius\",\n            \"authorSlug\": \"mencius\",\n            \"length\": 43,\n            \"dateAdded\": \"2021-03-26\",\n            \"dateModified\": \"2021-03-26\"\n        },\n        {\n            \"tags\": [\n                \"friendship\"\n            ],\n            \"_id\": \"eobAW2Ou0\",\n            \"content\": \"You win the victory when you yield to friends.\",\n            \"author\": \"Sophocles\",\n            \"authorSlug\": \"sophocles\",\n            \"length\": 46,\n            \"dateAdded\": \"2021-03-26\",\n            \"dateModified\": \"2021-03-26\"\n        },\n        {\n            \"tags\": [\n                \"friendship\"\n            ],\n            \"_id\": \"Aj1hWd83aS\",\n            \"content\": \"It is only the great hearted who can be true friends. The mean and cowardly, can never know what true friendship means.\",\n            \"author\": \"Charles Kingsley\",\n            \"authorSlug\": \"charles-kingsley\",\n            \"length\": 119,\n            \"dateAdded\": \"2021-03-08\",\n            \"dateModified\": \"2021-06-17\"\n        },\n        {\n            \"tags\": [\n                \"famous-quotes\",\n                \"friendship\"\n            ],\n            \"_id\": \"4CYX4OWZ4S-W\",\n            \"content\": \"A single rose can be my garden... a single friend, my world.\",\n            \"author\": \"Leo Buscaglia\",\n            \"authorSlug\": \"leo-buscaglia\",\n            \"length\": 60,\n            \"dateAdded\": \"2021-03-08\",\n            \"dateModified\": \"2021-03-08\"\n        },\n        {\n            \"tags\": [\n                \"friendship\"\n            ],\n            \"_id\": \"wIfNy-oDtr\",\n            \"content\": \"Friendship needs no words - it is solitude delivered from the anguish of loneliness.\",\n            \"author\": \"Dag Hammarskjöld\",\n            \"authorSlug\": \"dag-hammarskjold\",\n            \"length\": 84,\n            \"dateAdded\": \"2021-03-08\",\n            \"dateModified\": \"2021-03-08\"\n        },\n        {\n            \"tags\": [\n                \"friendship\"\n            ],\n            \"_id\": \"Q8AlUDqUpT\",\n            \"content\": \"Sustaining true friendship is a lot more challenging than we give it credit for.\",\n            \"author\": \"Mariella Frostrup\",\n            \"authorSlug\": \"mariella-frostrup\",\n            \"length\": 80,\n            \"dateAdded\": \"2021-03-08\",\n            \"dateModified\": \"2021-03-08\"\n        },\n        {\n            \"tags\": [\n                \"friendship\"\n            ],\n            \"_id\": \"C5_AURs6v6\",\n            \"content\": \"Friendship is the source of the greatest pleasures, and without friends even the most agreeable pursuits become tedious.\",\n            \"author\": \"Thomas Aquinas\",\n            \"authorSlug\": \"thomas-aquinas\",\n            \"length\": 120,\n            \"dateAdded\": \"2021-02-27\",\n            \"dateModified\": \"2021-02-27\"\n        },\n        {\n            \"tags\": [\n                \"famous-quotes\",\n                \"friendship\",\n                \"self-help\"\n            ],\n            \"_id\": \"RP2z5Ir_xwF2\",\n            \"content\": \"When we seek to discover the best in others, we somehow bring out the best in ourselves.\",\n            \"author\": \"William Arthur Ward\",\n            \"authorSlug\": \"william-arthur-ward\",\n            \"length\": 88,\n            \"dateAdded\": \"2021-02-27\",\n            \"dateModified\": \"2021-02-27\"\n        },\n        {\n            \"tags\": [\n                \"friendship\"\n            ],\n            \"_id\": \"8ry084PzfT\",\n            \"content\": \"A true friend freely, advises justly, assists readily, adventures boldly, takes all patiently, defends courageously, and continues a friend unchangeably.\",\n            \"author\": \"William C. Menninger\",\n            \"authorSlug\": \"william-c-menninger\",\n            \"length\": 153,\n            \"dateAdded\": \"2021-02-27\",\n            \"dateModified\": \"2021-02-27\"\n        },\n        {\n            \"tags\": [\n                \"friendship\"\n            ],\n            \"_id\": \"z-mSLKd0hm\",\n            \"content\": \"Of all possessions a friend is the most precious.\",\n            \"author\": \"Herodotus\",\n            \"authorSlug\": \"herodotus\",\n            \"length\": 49,\n            \"dateAdded\": \"2021-02-27\",\n            \"dateModified\": \"2021-02-27\"\n        },\n        {\n            \"tags\": [\n                \"friendship\"\n            ],\n            \"_id\": \"Yl8o9gfnbm\",\n            \"content\": \"The world is round so that friendship may encircle it.\",\n            \"author\": \"Pierre Teilhard de Chardin\",\n            \"authorSlug\": \"pierre-teilhard-de-chardin\",\n            \"length\": 54,\n            \"dateAdded\": \"2021-02-12\",\n            \"dateModified\": \"2021-02-12\"\n        },\n        {\n            \"tags\": [\n                \"friendship\"\n            ],\n            \"_id\": \"yHmYezfz4G\",\n            \"content\": \"Business, you know, may bring you money, but friendship hardly ever does.\",\n            \"author\": \"Jane Austen\",\n            \"authorSlug\": \"jane-austen\",\n            \"length\": 73,\n            \"dateAdded\": \"2021-02-12\",\n            \"dateModified\": \"2021-02-12\"\n        },\n        {\n            \"tags\": [\n                \"friendship\"\n            ],\n            \"_id\": \"OwQANbtdRT\",\n            \"content\": \"My best friend is the one who brings out the best in me.\",\n            \"author\": \"Henry Ford\",\n            \"authorSlug\": \"henry-ford\",\n            \"length\": 56,\n            \"dateAdded\": \"2021-01-30\",\n            \"dateModified\": \"2021-01-30\"\n        },\n        {\n            \"tags\": [\n                \"friendship\"\n            ],\n            \"_id\": \"1pk3RmCB6q\",\n            \"content\": \"We must reach out our hand in friendship and dignity both to those who would befriend us and those who would be our enemy.\",\n            \"author\": \"Arthur Ashe\",\n            \"authorSlug\": \"arthur-ashe\",\n            \"length\": 122,\n            \"dateAdded\": \"2021-01-30\",\n            \"dateModified\": \"2021-01-30\"\n        },\n        {\n            \"tags\": [\n                \"friendship\"\n            ],\n            \"_id\": \"Chvu_626SS\",\n            \"content\": \"The most I can do for my friend is simply be his friend.\",\n            \"author\": \"Henry David Thoreau\",\n            \"authorSlug\": \"henry-david-thoreau\",\n            \"length\": 56,\n            \"dateAdded\": \"2021-01-20\",\n            \"dateModified\": \"2021-01-20\"\n        },\n        {\n            \"tags\": [\n                \"friendship\"\n            ],\n            \"_id\": \"YRWT98QBEC\",\n            \"content\": \"Love and friendship exclude each other.\",\n            \"author\": \"Jean de La Bruyère\",\n            \"authorSlug\": \"jean-de-la-bruyere\",\n            \"length\": 39,\n            \"dateAdded\": \"2021-01-20\",\n            \"dateModified\": \"2021-01-20\"\n        },\n        {\n            \"tags\": [\n                \"friendship\"\n            ],\n            \"_id\": \"N-_tRxD3bY\",\n            \"content\": \"Rejoicing in our joy, not suffering over our suffering, makes someone a friend.\",\n            \"author\": \"Friedrich Nietzsche\",\n            \"authorSlug\": \"friedrich-nietzsche\",\n            \"length\": 79,\n            \"dateAdded\": \"2021-01-20\",\n            \"dateModified\": \"2021-01-20\"\n        }\n    ]\n}","isEvidence":false,"id":"report-data-1626c73b-7be6-4716-8194-480330763f7e"}],"precondition":false,"level":1},{"number":6,"description":"Then validate the total count \"187\"","duration":31,"startTime":"2021-07-03T13:31:56.825+05:30[Asia/Calcutta]","result":"SUCCESS","precondition":false,"level":1}]}],"userStory":{"id":"quotableapi---automation","storyName":"QuotableAPI - Automation","path":"quotable_api.feature","narrative":"  I want to automate the QuotableAPI and validate the various functionalities","type":"feature"},"featureTag":{"name":"QuotableAPI - Automation","type":"feature","displayName":"QuotableAPI - Automation"},"title":"Test quotable api with tags pages queryparams","description":"","backgroundTitle":"","backgroundDescription":"","tags":[{"name":"QuotableAPI - Automation","type":"feature","displayName":"QuotableAPI - Automation"},{"name":"quotableAPIWithTagsAndPagesParam","type":"tag","displayName":"quotableAPIWithTagsAndPagesParam"},{"name":"quotableAPI","type":"tag","displayName":"quotableAPI"}],"startTime":"2021-07-03T13:31:55.341+05:30[Asia/Calcutta]","duration":1515,"projectKey":"","isManualTestingUpToDate":false,"dataTable":{"headers":["path","tagValue","pageValue","totalCount"],"rows":[{"values":["quotes","friendship","2","187"],"lineNumber":63,"result":"SUCCESS"}],"predefinedRows":true,"scenarioOutline":"Given A call to quotable api with path as \"\u003cpath\u003e\"\n\rThen validate the api with following multiple queryparams\n\rWhen response code is \"200\"\n\rThen validate the total count \"\u003ctotalCount\u003e\"\n\r","dataSetDescriptors":[{"startRow":0,"rowCount":0,"name":"","description":""}]},"manual":false,"testSource":"Cucumber","result":"SUCCESS","scenarioOutline":"Given A call to quotable api with path as \"\u003cpath\u003e\"\r\nThen validate the api with following multiple queryparams\r\n|property | value|\r\n|tags | \u003ctagValue\u003e|\r\n|page | \u003cpageValue\u003e|\r\nWhen response code is \"200\"\r\nThen validate the total count \"\u003ctotalCount\u003e\""}