{"name":"Test quotable api with various pathparam","id":"quotableapi---automation;test-quotable-api-with-various-pathparam","testSteps":[{"number":1,"description":"1: Test quotable api with various pathparam ({pathparam\u003dquotes, totalCount\u003d1885})","duration":7265,"startTime":"2021-07-03T13:31:24.168+05:30[Asia/Calcutta]","result":"SUCCESS","precondition":false,"level":0,"lineNumber":16,"children":[{"number":2,"description":"Given the api is composed of \"https://api.quotable.io/\"","duration":1296,"startTime":"2021-07-03T13:31:24.184+05:30[Asia/Calcutta]","result":"SUCCESS","reportData":[{"title":"BaseURI","contents":"https://api.quotable.io/","isEvidence":false,"id":"report-data-1ed99eaa-5e1b-4065-abd4-4d007f7fdfca"}],"precondition":false,"level":1},{"number":3,"description":"Given A call to quotable api with pathparm \"quotes\"","duration":4625,"startTime":"2021-07-03T13:31:25.527+05:30[Asia/Calcutta]","result":"SUCCESS","precondition":false,"level":1},{"number":4,"description":"When response code is \"200\"","duration":250,"startTime":"2021-07-03T13:31:30.152+05:30[Asia/Calcutta]","result":"SUCCESS","reportData":[{"title":"Response Body with status code : 200","contents":"{\n    \"count\": 20,\n    \"totalCount\": 1885,\n    \"page\": 1,\n    \"totalPages\": 95,\n    \"lastItemIndex\": 20,\n    \"results\": [\n        {\n            \"tags\": [\n                \"famous-quotes\",\n                \"inspirational\"\n            ],\n            \"_id\": \"2xpHvSOQMD\",\n            \"author\": \"Helmut Schmidt\",\n            \"content\": \"The biggest room in the world is room for improvement.\",\n            \"authorSlug\": \"helmut-schmidt\",\n            \"length\": 54,\n            \"dateAdded\": \"2021-06-18\",\n            \"dateModified\": \"2021-06-18\"\n        },\n        {\n            \"tags\": [\n                \"famous-quotes\",\n                \"inspirational\"\n            ],\n            \"_id\": \"HMBEfGB94i\",\n            \"author\": \"Henry Ford\",\n            \"content\": \"Whether you think you can or you think you can\u0027t, you are right.\",\n            \"authorSlug\": \"henry-ford\",\n            \"length\": 64,\n            \"dateAdded\": \"2021-06-18\",\n            \"dateModified\": \"2021-06-18\"\n        },\n        {\n            \"tags\": [\n                \"famous-quotes\",\n                \"inspirational\"\n            ],\n            \"_id\": \"lJ60rOYWci\",\n            \"author\": \"Neil Gaiman\",\n            \"content\": \"The one thing that you have that nobody else has is you. Your voice, your mind, your story, your vision. So write and draw and build and play and dance and live as only you can.\",\n            \"authorSlug\": \"neil-gaiman\",\n            \"length\": 177,\n            \"dateAdded\": \"2021-06-18\",\n            \"dateModified\": \"2021-06-18\"\n        },\n        {\n            \"tags\": [\n                \"famous-quotes\",\n                \"inspirational\"\n            ],\n            \"_id\": \"XNLGqepInX\",\n            \"author\": \"Amy Poehler\",\n            \"content\": \"There’s power in looking silly and not caring that you do.\",\n            \"authorSlug\": \"amy-poehler\",\n            \"length\": 58,\n            \"dateAdded\": \"2021-06-18\",\n            \"dateModified\": \"2021-06-18\"\n        },\n        {\n            \"tags\": [\n                \"famous-quotes\",\n                \"inspirational\"\n            ],\n            \"_id\": \"aEPNVog6sT\",\n            \"author\": \"Eric Hoffer\",\n            \"content\": \"In times of change, learners inherit the earth, while the learned find themselves beautifully equipped to deal with a world that no longer exists.\",\n            \"authorSlug\": \"eric-hoffer\",\n            \"length\": 146,\n            \"dateAdded\": \"2021-06-18\",\n            \"dateModified\": \"2021-06-18\"\n        },\n        {\n            \"tags\": [\n                \"famous-quotes\",\n                \"inspirational\"\n            ],\n            \"_id\": \"QdK00IhCNX\",\n            \"author\": \"Larry Page\",\n            \"content\": \"If you\u0027re changing the world, you\u0027re working on important things. You\u0027re excited to get up in the morning.\",\n            \"authorSlug\": \"larry-page\",\n            \"length\": 106,\n            \"dateAdded\": \"2021-06-18\",\n            \"dateModified\": \"2021-06-18\"\n        },\n        {\n            \"tags\": [\n                \"wisdom\"\n            ],\n            \"_id\": \"96eV21NlZKJ\",\n            \"content\": \"Make it your habit not to be critical about small things.\",\n            \"author\": \"Edward Everett Hale\",\n            \"authorSlug\": \"edward-everett-hale\",\n            \"length\": 57,\n            \"dateAdded\": \"2021-05-12\",\n            \"dateModified\": \"2021-05-12\"\n        },\n        {\n            \"tags\": [\n                \"famous-quotes\"\n            ],\n            \"_id\": \"2xx4dfKrYVRf\",\n            \"content\": \"Some people thrive on huge, dramatic change. Some people prefer the slow and steady route. Do what\u0027s right for you.\",\n            \"author\": \"Julie Morgenstern\",\n            \"authorSlug\": \"julie-morgenstern\",\n            \"length\": 115,\n            \"dateAdded\": \"2021-05-12\",\n            \"dateModified\": \"2021-05-12\"\n        },\n        {\n            \"tags\": [\n                \"wisdom\"\n            ],\n            \"_id\": \"wEfrviG0x9r\",\n            \"content\": \"With age comes wisdom and a high sex drive. And the wisdom to enjoy it.\",\n            \"author\": \"Amber Valletta\",\n            \"authorSlug\": \"amber-valletta\",\n            \"length\": 71,\n            \"dateAdded\": \"2021-05-12\",\n            \"dateModified\": \"2021-05-12\"\n        },\n        {\n            \"tags\": [\n                \"famous-quotes\"\n            ],\n            \"_id\": \"6c2h-AtqMj6d\",\n            \"content\": \"You can stand tall without standing on someone. You can be a victor without having victims.\",\n            \"author\": \"Harriet Woods\",\n            \"authorSlug\": \"harriet-woods\",\n            \"length\": 91,\n            \"dateAdded\": \"2021-05-12\",\n            \"dateModified\": \"2021-05-12\"\n        },\n        {\n            \"tags\": [\n                \"famous-quotes\"\n            ],\n            \"_id\": \"CdL1z3NLSDrN\",\n            \"content\": \"Don\u0027t talk about what you have done or what you are going to do.\",\n            \"author\": \"Thomas Jefferson\",\n            \"authorSlug\": \"thomas-jefferson\",\n            \"length\": 64,\n            \"dateAdded\": \"2021-05-12\",\n            \"dateModified\": \"2021-05-12\"\n        },\n        {\n            \"tags\": [\n                \"wisdom\"\n            ],\n            \"_id\": \"l7UNABW6dA2\",\n            \"content\": \"Silence is the sleep that nourishes wisdom.\",\n            \"author\": \"Francis Bacon\",\n            \"authorSlug\": \"francis-bacon\",\n            \"length\": 43,\n            \"dateAdded\": \"2021-05-12\",\n            \"dateModified\": \"2021-05-12\"\n        },\n        {\n            \"tags\": [\n                \"friendship\"\n            ],\n            \"_id\": \"sTma0kWPt2\",\n            \"content\": \"Friendship, like credit, is highest when it is not used.\",\n            \"author\": \"Elbert Hubbard\",\n            \"authorSlug\": \"elbert-hubbard\",\n            \"length\": 56,\n            \"dateAdded\": \"2021-05-12\",\n            \"dateModified\": \"2021-05-12\"\n        },\n        {\n            \"tags\": [\n                \"friendship\"\n            ],\n            \"_id\": \"ARKzsqVpFY\",\n            \"content\": \"Two persons cannot long be friends if they cannot forgive each other\u0027s little failings.\",\n            \"author\": \"Jean de La Bruyère\",\n            \"authorSlug\": \"jean-de-la-bruyere\",\n            \"length\": 87,\n            \"dateAdded\": \"2021-05-12\",\n            \"dateModified\": \"2021-05-12\"\n        },\n        {\n            \"tags\": [\n                \"wisdom\"\n            ],\n            \"_id\": \"5syS8jEn8m\",\n            \"content\": \"When a thing is done, it\u0027s done. Don\u0027t look back. Look forward to your next objective.\",\n            \"author\": \"George Marshall\",\n            \"authorSlug\": \"george-marshall\",\n            \"length\": 86,\n            \"dateAdded\": \"2021-05-12\",\n            \"dateModified\": \"2021-05-12\"\n        },\n        {\n            \"tags\": [\n                \"famous-quotes\"\n            ],\n            \"_id\": \"bfpxfIQlqZ_3\",\n            \"content\": \"He who controls others may be powerful, but he who has mastered himself is mightier still.\",\n            \"author\": \"Laozi\",\n            \"authorSlug\": \"laozi\",\n            \"length\": 90,\n            \"dateAdded\": \"2021-05-12\",\n            \"dateModified\": \"2021-05-12\"\n        },\n        {\n            \"tags\": [\n                \"wisdom\"\n            ],\n            \"_id\": \"6Kl3UT6ULk\",\n            \"content\": \"Wisdom, compassion, and courage are the three universally recognized moral qualities of men.\",\n            \"author\": \"Confucius\",\n            \"authorSlug\": \"confucius\",\n            \"length\": 92,\n            \"dateAdded\": \"2021-05-12\",\n            \"dateModified\": \"2021-05-12\"\n        },\n        {\n            \"tags\": [\n                \"famous-quotes\"\n            ],\n            \"_id\": \"Oh-e1-oygRPX\",\n            \"content\": \"To be wronged is nothing unless you continue to remember it.\",\n            \"author\": \"Confucius\",\n            \"authorSlug\": \"confucius\",\n            \"length\": 60,\n            \"dateAdded\": \"2021-05-12\",\n            \"dateModified\": \"2021-05-12\"\n        },\n        {\n            \"tags\": [\n                \"famous-quotes\"\n            ],\n            \"_id\": \"2wYjTZiTUSgQ\",\n            \"content\": \"The things that one most wants to do are the things that are probably most worth doing.\",\n            \"author\": \"Winifred Holtby\",\n            \"authorSlug\": \"winifred-holtby\",\n            \"length\": 87,\n            \"dateAdded\": \"2021-05-12\",\n            \"dateModified\": \"2021-05-12\"\n        },\n        {\n            \"tags\": [\n                \"friendship\"\n            ],\n            \"_id\": \"4mPxqSvuiN\",\n            \"content\": \"Friendship increases in visiting friends, but in visiting them seldom.\",\n            \"author\": \"Francis Bacon\",\n            \"authorSlug\": \"francis-bacon\",\n            \"length\": 70,\n            \"dateAdded\": \"2021-05-12\",\n            \"dateModified\": \"2021-05-12\"\n        }\n    ]\n}","isEvidence":false,"id":"report-data-e0640492-cfae-4edf-a777-4cb9810808e5"}],"precondition":false,"level":1},{"number":5,"description":"Then validate the total count \"1885\"","duration":1031,"startTime":"2021-07-03T13:31:30.402+05:30[Asia/Calcutta]","result":"SUCCESS","precondition":false,"level":1}]},{"number":6,"description":"2: Test quotable api with various pathparam ({pathparam\u003dauthors, totalCount\u003d700})","duration":1578,"startTime":"2021-07-03T13:31:31.449+05:30[Asia/Calcutta]","result":"SUCCESS","precondition":false,"level":0,"lineNumber":17,"children":[{"number":7,"description":"Given the api is composed of \"https://api.quotable.io/\"","duration":0,"startTime":"2021-07-03T13:31:31.464+05:30[Asia/Calcutta]","result":"SUCCESS","reportData":[{"title":"BaseURI","contents":"https://api.quotable.io/","isEvidence":false,"id":"report-data-251b8f59-cc42-4f9c-a50c-6c3931c7d310"}],"precondition":false,"level":1},{"number":8,"description":"Given A call to quotable api with pathparm \"authors\"","duration":1469,"startTime":"2021-07-03T13:31:31.464+05:30[Asia/Calcutta]","result":"SUCCESS","precondition":false,"level":1},{"number":9,"description":"When response code is \"200\"","duration":31,"startTime":"2021-07-03T13:31:32.933+05:30[Asia/Calcutta]","result":"SUCCESS","reportData":[{"title":"Response Body with status code : 200","contents":"{\n    \"count\": 20,\n    \"totalCount\": 700,\n    \"page\": 1,\n    \"totalPages\": 35,\n    \"lastItemIndex\": 20,\n    \"results\": [\n        {\n            \"link\": \"https://en.wikipedia.org/wiki/A._A._Milne\",\n            \"bio\": \"Alan Alexander Milne (18 January 1882 – 31 January 1956) was an English author, best known for his books about the teddy bear Winnie-the-Pooh and for various poems. Milne was a noted writer, primarily as a playwright, before the huge success of Pooh overshadowed all his previous work.\",\n            \"description\": \"British author\",\n            \"_id\": \"-yBDYq_Vtnuw\",\n            \"name\": \"A. A. Milne\",\n            \"quoteCount\": 2,\n            \"slug\": \"a-a-milne\",\n            \"dateAdded\": \"2019-08-08\",\n            \"dateModified\": \"2019-08-08\"\n        },\n        {\n            \"link\": \"https://en.wikipedia.org/wiki/A._P._J._Abdul_Kalam\",\n            \"bio\": \"Avul Pakir Jainulabdeen Abdul Kalam (15 October 1931 – 27 July 2015) was an aerospace scientist who served as the 11th President of India from 2002 to 2007.\",\n            \"description\": \"Scientist and 11th President of India\",\n            \"_id\": \"Bblz8Knp6-ZB\",\n            \"name\": \"A. P. J. Abdul Kalam\",\n            \"quoteCount\": 2,\n            \"slug\": \"a-p-j-abdul-kalam\",\n            \"dateAdded\": \"2019-12-13\",\n            \"dateModified\": \"2019-12-13\"\n        },\n        {\n            \"link\": \"https://en.wikipedia.org/wiki/A._Powell_Davies\",\n            \"bio\": \"Arthur Powell Davies (June 5, 1902 – September 26, 1957) was the minister of All Souls Church, Unitarian in Washington, D.C. from 1944 until his death in 1957. A prolific author of theological books and sermon collections, he came to national prominence in the U.S. through his liberal activism advocating civil rights for African-Americans and women.\",\n            \"description\": \"Civil rights activist\",\n            \"_id\": \"N-S5OevQOHpy\",\n            \"name\": \"A. Powell Davies\",\n            \"quoteCount\": 2,\n            \"slug\": \"a-powell-davies\",\n            \"dateAdded\": \"2020-01-12\",\n            \"dateModified\": \"2020-01-12\"\n        },\n        {\n            \"link\": \"https://en.wikipedia.org/wiki/Abigail_Adams\",\n            \"bio\": \"Abigail Adams (November 22, [O.S. November 11] 1744 – October 28, 1818) was the wife and closest advisor of John Adams, as well as the mother of John Quincy Adams. She is sometimes considered to have been a Founder of the United States, and is now designated as the first Second Lady and second First Lady of the United States, although these titles were not used at the time.\",\n            \"description\": \"2nd First Lady of the United States\",\n            \"_id\": \"82zk1b45Zn\",\n            \"name\": \"Abigail Adams\",\n            \"quoteCount\": 1,\n            \"slug\": \"abigail-adams\",\n            \"dateAdded\": \"2020-04-15\",\n            \"dateModified\": \"2020-04-15\"\n        },\n        {\n            \"link\": \"https://en.wikipedia.org/wiki/Abraham_Lincoln\",\n            \"bio\": \"Abraham Lincoln (February 12, 1809 – April 15, 1865) was an American statesman and lawyer who served as the 16th president of the United States (1861–1865). Lincoln led the nation through its greatest moral, constitutional, and political crisis in the American Civil War.\",\n            \"description\": \"16th president of the United States\",\n            \"_id\": \"8k75S1ntV9GW\",\n            \"name\": \"Abraham Lincoln\",\n            \"quoteCount\": 15,\n            \"slug\": \"abraham-lincoln\",\n            \"dateAdded\": \"2020-01-31\",\n            \"dateModified\": \"2020-01-31\"\n        },\n        {\n            \"link\": \"https://en.wikipedia.org/wiki/Abraham_Maslow\",\n            \"bio\": \"Abraham Harold Maslow (April 1, 1908 – June 8, 1970) was an American psychologist who was best known for creating Maslow\u0027s hierarchy of needs, a theory of psychological health predicated on fulfilling innate human needs in priority, culminating in self-actualization.\",\n            \"description\": \"American psychologist\",\n            \"_id\": \"LIMi8MqkzapA\",\n            \"name\": \"Abraham Maslow\",\n            \"quoteCount\": 2,\n            \"slug\": \"abraham-maslow\",\n            \"dateAdded\": \"2020-03-11\",\n            \"dateModified\": \"2020-03-11\"\n        },\n        {\n            \"link\": \"https://en.wikipedia.org/wiki/Aeschylus\",\n            \"bio\": \"Aeschylus was an ancient Greek author of Greek tragedy, and is often described as the father of tragedy. Academics\u0027 knowledge of the genre begins with his work, and understanding of earlier Greek tragedy is largely based on inferences made from reading his surviving plays.\",\n            \"description\": \"Ancient Athenian playwright\",\n            \"_id\": \"ossJxB6-1\",\n            \"name\": \"Aeschylus\",\n            \"quoteCount\": 3,\n            \"slug\": \"aeschylus\",\n            \"dateAdded\": \"2020-04-15\",\n            \"dateModified\": \"2020-04-15\"\n        },\n        {\n            \"link\": \"https://en.wikipedia.org/wiki/Aesop\",\n            \"bio\": \"Aesop (c. 620 – 564 BCE) was a Greek fabulist and storyteller credited with a number of fables now collectively known as Aesop\u0027s Fables.\",\n            \"description\": \"Ancient Greek storyteller\",\n            \"_id\": \"XYxYtSeixS-o\",\n            \"name\": \"Aesop\",\n            \"quoteCount\": 2,\n            \"slug\": \"aesop\",\n            \"dateAdded\": \"2020-01-15\",\n            \"dateModified\": \"2020-01-15\"\n        },\n        {\n            \"link\": \"https://en.wikipedia.org/wiki/Afrika_Bambaataa\",\n            \"bio\": \"Afrika Bambaataa (born Lance Taylor; April 17, 1957) is an American disc jockey, rapper, songwriter and producer from the South Bronx, New York. He is notable for releasing a series of genre-defining electro tracks in the 1980s that influenced the development of hip hop culture.\",\n            \"description\": \"Record producer and activist\",\n            \"_id\": \"gfyb7CJa5\",\n            \"name\": \"Afrika Bambaataa\",\n            \"quoteCount\": 1,\n            \"slug\": \"afrika-bambaataa\",\n            \"dateAdded\": \"2019-03-24\",\n            \"dateModified\": \"2019-03-24\"\n        },\n        {\n            \"link\": \"https://en.wikipedia.org/wiki/Agatha_Christie\",\n            \"bio\": \"Dame Agatha Mary Clarissa Christie, Lady Mallowan,  (15 September 1890 – 12 January 1976) was an English writer known for her 66 detective novels and 14 short story collections, particularly those revolving around fictional detectives Hercule Poirot and Miss Marple. She also wrote the world\u0027s longest-running play The Mousetrap and six romances under the pen name Mary Westmacott.\",\n            \"description\": \"English mystery writer\",\n            \"_id\": \"qsGKdgIDw5wR\",\n            \"name\": \"Agatha Christie\",\n            \"quoteCount\": 1,\n            \"slug\": \"agatha-christie\",\n            \"dateAdded\": \"2021-01-11\",\n            \"dateModified\": \"2021-01-11\"\n        },\n        {\n            \"link\": \"https://en.wikipedia.org/wiki/Akhenaten\",\n            \"bio\": \"Akhenaten, known before the fifth year of his reign as Amenhotep IV, was an ancient Egyptian pharaoh of the 18th Dynasty, who ruled for 17 years and died perhaps in 1336 BC or 1334 BC. \",\n            \"description\": \"18th Dynasty pharaoh\",\n            \"_id\": \"8HD7jXVhDv\",\n            \"name\": \"Akhenaten\",\n            \"quoteCount\": 1,\n            \"slug\": \"akhenaten\",\n            \"dateAdded\": \"2021-01-30\",\n            \"dateModified\": \"2021-01-30\"\n        },\n        {\n            \"link\": \"https://en.wikipedia.org/wiki/Alan_Cohen\",\n            \"bio\": \"Alan Phillip Cohen (born October 5, 1954) is an American businessman, best known for his ownership of the Florida Panthers hockey team and his founding of several pharmaceutical companies. Cohen holds several degrees from the University of Florida.\",\n            \"description\": \"American hockey executive\",\n            \"_id\": \"EqFOxH8f03zq\",\n            \"name\": \"Alan Cohen\",\n            \"quoteCount\": 1,\n            \"slug\": \"alan-cohen\",\n            \"dateAdded\": \"2020-01-31\",\n            \"dateModified\": \"2020-01-31\"\n        },\n        {\n            \"link\": \"https://en.wikipedia.org/wiki/Alan_Watts\",\n            \"bio\": \"Alan Wilson Watts (6 January 1915 – 16 November 1973) was a British writer and lecturer who interpreted and popularised Eastern philosophy and religion for a Western audience. Born in Chislehurst, England, he moved to the United States in 1938 and began Zen training in New York.\",\n            \"description\": \"British author\",\n            \"_id\": \"ceimd_kx6Nbh\",\n            \"name\": \"Alan Watts\",\n            \"quoteCount\": 1,\n            \"slug\": \"alan-watts\",\n            \"dateAdded\": \"2021-02-27\",\n            \"dateModified\": \"2021-02-27\"\n        },\n        {\n            \"link\": \"https://en.wikipedia.org/wiki/Albert_Camus\",\n            \"bio\": \"Albert Camus (7 November 1913 – 4 January 1960) was a French philosopher, author, and journalist. He won the Nobel Prize in Literature at the age of 44 in 1957, the second-youngest recipient in history.\",\n            \"description\": \"French author\",\n            \"_id\": \"RmuonXrXY44Z\",\n            \"name\": \"Albert Camus\",\n            \"quoteCount\": 6,\n            \"slug\": \"albert-camus\",\n            \"dateAdded\": \"2021-05-07\",\n            \"dateModified\": \"2021-05-07\"\n        },\n        {\n            \"link\": \"https://en.wikipedia.org/wiki/Albert_Einstein\",\n            \"bio\": \"Albert Einstein (14 March 1879 – 18 April 1955) was a German-born theoretical physicist who developed the theory of relativity, one of the two pillars of modern physics (alongside quantum mechanics). His work is also known for its influence on the philosophy of science.\",\n            \"description\": \"Theoretical physicist\",\n            \"_id\": \"L76FRuEeGIUJ\",\n            \"name\": \"Albert Einstein\",\n            \"quoteCount\": 30,\n            \"slug\": \"albert-einstein\",\n            \"dateAdded\": \"2019-07-03\",\n            \"dateModified\": \"2019-07-03\"\n        },\n        {\n            \"link\": \"https://en.wikipedia.org/wiki/Albert_Schweitzer\",\n            \"bio\": \"Albert Schweitzer  (14 January 1875 – 4 September 1965) was an Alsatian polymath. He was a theologian, organist, writer, humanitarian, philosopher, and physician.\",\n            \"description\": \"Theologian\",\n            \"_id\": \"ANT0MUtjmG6O\",\n            \"name\": \"Albert Schweitzer\",\n            \"quoteCount\": 8,\n            \"slug\": \"albert-schweitzer\",\n            \"dateAdded\": \"2020-07-10\",\n            \"dateModified\": \"2020-07-10\"\n        },\n        {\n            \"link\": \"https://en.wikipedia.org/wiki/Aldous_Huxley\",\n            \"bio\": \"Aldous Leonard Huxley (26 July 1894 – 22 November 1963) was an English writer and philosopher. He wrote nearly fifty books—both novels and non-fiction works—as well as wide-ranging essays, narratives, and poems.\",\n            \"description\": \"English author\",\n            \"_id\": \"9B-Gz0CukKAX\",\n            \"name\": \"Aldous Huxley\",\n            \"quoteCount\": 4,\n            \"slug\": \"aldous-huxley\",\n            \"dateAdded\": \"2020-04-15\",\n            \"dateModified\": \"2020-04-15\"\n        },\n        {\n            \"link\": \"https://en.wikipedia.org/wiki/Alexander_Chalmers\",\n            \"bio\": \"For the mayor of Warsaw of the same name, see Alexander Chalmers (mayor of Warsaw).  Alexander Chalmers (29 March 1759 – 29 December 1834) was a Scottish writer.\",\n            \"description\": \"Scottish writer\",\n            \"_id\": \"N5lVXx7ZOkGV\",\n            \"name\": \"Alexander Chalmers\",\n            \"quoteCount\": 1,\n            \"slug\": \"alexander-chalmers\",\n            \"dateAdded\": \"2019-11-16\",\n            \"dateModified\": \"2019-11-16\"\n        },\n        {\n            \"link\": \"https://en.wikipedia.org/wiki/Alexander_Pope\",\n            \"bio\": \"Alexander Pope (21 May 1688 – 30 May 1744) is regarded as one of the greatest English poets, and the foremost poet of the early eighteenth century. He is best known for his satirical and discursive poetry, including The Rape of the Lock, The Dunciad, and An Essay on Criticism, as well as for his translation of Homer.\",\n            \"description\": \"English poet\",\n            \"_id\": \"_gz-cfmqA1mr\",\n            \"name\": \"Alexander Pope\",\n            \"quoteCount\": 3,\n            \"slug\": \"alexander-pope\",\n            \"dateAdded\": \"2020-12-19\",\n            \"dateModified\": \"2020-12-19\"\n        },\n        {\n            \"link\": \"https://en.wikipedia.org/wiki/Alexander_the_Great\",\n            \"bio\": \"Alexander III of Macedon (July 356 BC – 11 June 323 BC), commonly known as Alexander the Great, was a king of the ancient Greek kingdom of Macedon and a member of the Argead dynasty. He was born in Pella in 356 BC and succeeded his father Philip II to the throne at the age of 20.\",\n            \"description\": \"King of Macedonia\",\n            \"_id\": \"GxAzeheUbynB\",\n            \"name\": \"Alexander the Great\",\n            \"quoteCount\": 1,\n            \"slug\": \"alexander-the-great\",\n            \"dateAdded\": \"2020-05-21\",\n            \"dateModified\": \"2020-05-21\"\n        }\n    ]\n}","isEvidence":false,"id":"report-data-e8560593-bebe-4aea-98f0-a929e051c5b2"}],"precondition":false,"level":1},{"number":10,"description":"Then validate the total count \"700\"","duration":63,"startTime":"2021-07-03T13:31:32.964+05:30[Asia/Calcutta]","result":"SUCCESS","precondition":false,"level":1}]}],"userStory":{"id":"quotableapi---automation","storyName":"QuotableAPI - Automation","path":"quotable_api.feature","narrative":"  I want to automate the QuotableAPI and validate the various functionalities","type":"feature"},"featureTag":{"name":"QuotableAPI - Automation","type":"feature","displayName":"QuotableAPI - Automation"},"title":"Test quotable api with various pathparam","description":"","backgroundTitle":"","backgroundDescription":"","tags":[{"name":"QuotableAPI - Automation","type":"feature","displayName":"QuotableAPI - Automation"},{"name":"quotableAPIWithPathParameters","type":"tag","displayName":"quotableAPIWithPathParameters"},{"name":"quotableAPI","type":"tag","displayName":"quotableAPI"}],"startTime":"2021-07-03T13:31:23.918+05:30[Asia/Calcutta]","duration":9109,"projectKey":"","isManualTestingUpToDate":false,"dataTable":{"headers":["pathparam","totalCount"],"rows":[{"values":["quotes","1885"],"lineNumber":16,"result":"SUCCESS"},{"values":["authors","700"],"lineNumber":17,"result":"SUCCESS"}],"predefinedRows":true,"scenarioOutline":"Given A call to quotable api with pathparm \"\u003cpathparam\u003e\"\n\rWhen response code is \"200\"\n\rThen validate the total count \"\u003ctotalCount\u003e\"\n\r","dataSetDescriptors":[{"startRow":0,"rowCount":0,"name":"","description":""}]},"manual":false,"testSource":"Cucumber","result":"SUCCESS","scenarioOutline":"Given A call to quotable api with pathparm \"\u003cpathparam\u003e\"\r\nWhen response code is \"200\"\r\nThen validate the total count \"\u003ctotalCount\u003e\""}